{
  "houses": [
    {
      "name": "גריפינדור",
      "icon": "change_history",
      "color": "red",
      "id": 1
    },
    {
      "name": "האפלפאף",
      "icon": "face",
      "color": "yellow",
      "id": 2
    },
    {
      "name": "סלית׳רין",
      "icon": "waves",
      "color": "green",
      "id": 3
    },
    {
      "name": "רייבנקלו",
      "icon": "grade",
      "color": "blue",
      "id": 4
    },
    {
      "name": "אסטריסק",
      "icon": "fingerprint",
      "color": "orange",
      "id": 5
    },
    {
      "name": "שם של בית כל שהוא",
      "icon": "weekend",
      "color": "pink",
      "id": 6
    },
    {
      "id": 7,
      "name": "אבגד",
      "icon": "eco",
      "color": "red"
    }
  ],
  "spells": [
    {
      "name": "אאאאא",
      "description": "לורם איפסום דולור סיט אמט",
      "id": 1
    },
    {
      "name": "בבבבב",
      "description": "בלה בלה בלה בלה בלה",
      "id": 2
    },
    {
      "name": "גגגגגג",
      "description": "גג גבוה ואין שום מקום אחר בעולם",
      "id": 3
    },
    {
      "name": "דדדד",
      "description": "בלה בלה בלה בלה בלה בלה",
      "id": 4
    }
  ],
  "students": [
    {
      "id": 1,
      "registrationDate": "2020-05-10T18:49:37.845Z",
      "firstName": "יהונתן",
      "lastName": "אלישע",
      "birthDate": "1995-02-07T22:00:00.000Z",
      "house": 3,
      "spells": [
        1,
        2
      ],
      "gender": "male"
    },
    {
      "id": 2,
      "registrationDate": "2020-05-10T18:50:20.437Z",
      "firstName": "הילה",
      "lastName": "מלמד",
      "birthDate": "2016-03-07T22:00:00.000Z",
      "house": 3,
      "spells": [
        2,
        1
      ],
      "gender": "female"
    },
    {
      "id": 3,
      "registrationDate": "2020-05-10T18:50:42.452Z",
      "firstName": "שגיא",
      "lastName": "בכור",
      "birthDate": "2020-02-03T22:00:00.000Z",
      "house": 2,
      "spells": [],
      "gender": "male"
    },
    {
      "id": 4,
      "registrationDate": "2020-05-10T18:50:59.619Z",
      "firstName": "לי",
      "lastName": "כצנלסון",
      "birthDate": "2020-04-01T21:00:00.000Z",
      "house": 5,
      "spells": [
        2,
        1
      ],
      "gender": "male"
    },
    {
      "id": 5,
      "registrationDate": "2020-05-10T18:57:35.075Z",
      "firstName": "רון",
      "lastName": "קיבה",
      "birthDate": "2020-01-01T22:00:00.000Z",
      "house": 5,
      "spells": [
        1,
        4,
        3
      ],
      "gender": "male"
    },
    {
      "id": 6,
      "registrationDate": "2020-05-11T08:06:49.278Z",
      "firstName": "אור מיקאלה",
      "lastName": "פרום",
      "birthDate": "2020-01-07T22:00:00.000Z",
      "house": 5,
      "spells": [
        3,
        1
      ],
      "gender": "female"
    }
  ]
}